warmup04-adele-shen
…
# column_types = cols("character", "character", "factor", "integer", "integer", "integer", "integer", "character", "real", "integer", "integer", "integer", "integer", "integer", "integer")

# you can use a compact string representation where each character represents one column: c = character, i = integer, n = number, d = double, l = logical, f = factor, D = date, T = date time, t = time, ? = guess, or _/- to skip the column

column_types = 'ccfiiiicdiiiiii'

dat = read_csv("nba.data", col_types = column_types)
dat

## # A tibble: 477 x 15
##    player team  position height weight   age experience college salary
##    <chr>  <chr> <fct>     <int>  <int> <int>      <int> <chr>    <dbl>
##  1 Al Ho BOS   C            82    245    30          9 Univer 2.65e7
##  2 Amir  BOS   PF           81    240    29         11 <NA>    1.20e7
##  3 Avery BOS   SG           74    180    26          6 Univer 8.27e6
##  4 Demet BOS   PG           73    201    22          0 Univer 1.45e6
##  5 Geral BOS   SF           79    205    31          9 <NA>    1.41e6
##  6 Isaia BOS   PG           69    185    27          5 Univer 6.59e6
##  7 Jae C BOS   SF           78    235    26          4 Marque 6.29e6
##  8 James BOS   SG           78    215    21          2 Univer 1.83e6
##  9 Jayle BOS   SF           79    225    20          0 Univer 4.74e6
## 10 Jonas BOS   PF           82    231    29          6 <NA>    5.00e6
## #  with 467 more rows, and 6 more variables: games <int>, minutes <int>,
## #   points <int>, points3 <int>, points2 <int>, points1 <int>
…
team_salaries = summarise(
  group_by(dat, team),
  total_salary = sum(salary)/1000000, 
  mean_salary = mean(salary)/1000000, 
  median_salary = median(salary)/100000
)

## Warning: package 'bindrcpp' was built under R version 3.4.4

team_salaries = arrange(team_salaries, desc(total_salary))
team_salaries

## # A tibble: 30 x 4
##    team  total_salary mean_salary median_salary
##    <chr>        <dbl>       <dbl>         <dbl>
##  1 CLE           127.        7.07          20.3
##  2 LAC           115.        7.65          35  
##  3 MEM           109.        6.81          31.2
##  4 TOR           108.        7.23          53  
##  5 SAS           105.        6.59          22.2
##  6 MIL           105.        5.51          25.7
##  7 ORL           104.        5.78          41.3
##  8 DET           103.        6.87          46.2
##  9 POR           102.        7.88          66.7
## 10 WAS           101.        6.72          37.3
## #  with 20 more rows
…
